<svg xmlns="http://www.w3.org/2000/svg" width="33.035" height="33.036" viewBox="0 0 33.035 33.036">
  <g id="telephone_2_" data-name="telephone (2)" transform="translate(-0.006 0)">
    <g id="Group_4125" data-name="Group 4125" transform="translate(0.006)">
      <path id="Path_3381" data-name="Path 3381" d="M25.121,64.82a2.315,2.315,0,0,0-3.5,0c-.818.811-1.636,1.622-2.44,2.447a.482.482,0,0,1-.674.124c-.529-.289-1.093-.522-1.6-.839a25.378,25.378,0,0,1-6.118-5.568A14.5,14.5,0,0,1,8.6,57.471a.5.5,0,0,1,.124-.646c.818-.791,1.615-1.6,2.42-2.413a2.324,2.324,0,0,0-.007-3.582c-.639-.646-1.279-1.279-1.918-1.925-.66-.66-1.313-1.327-1.98-1.98a2.33,2.33,0,0,0-3.5.007c-.825.811-1.615,1.643-2.454,2.44A3.984,3.984,0,0,0,.03,52.061a11.388,11.388,0,0,0,.88,4.9A29.784,29.784,0,0,0,6.2,65.768,32.714,32.714,0,0,0,17.03,74.244a15.669,15.669,0,0,0,6,1.746,4.4,4.4,0,0,0,3.774-1.437c.7-.784,1.492-1.5,2.234-2.248a2.339,2.339,0,0,0,.014-3.561Q27.094,66.775,25.121,64.82Z" transform="translate(-0.006 -42.966)" fill="#b50014"/>
      <path id="Path_3382" data-name="Path 3382" d="M245.306,105.775l2.537-.433A11.386,11.386,0,0,0,238.211,96l-.357,2.55a8.8,8.8,0,0,1,7.452,7.225Z" transform="translate(-221.503 -89.401)" fill="#b50014"/>
      <path id="Path_3383" data-name="Path 3383" d="M253.836,5.348A18.7,18.7,0,0,0,243.111,0l-.357,2.55a16.321,16.321,0,0,1,13.811,13.385L259.1,15.5A18.841,18.841,0,0,0,253.836,5.348Z" transform="translate(-226.066)" fill="#b50014"/>
    </g>
  </g>
</svg>
