<svg xmlns="http://www.w3.org/2000/svg" width="760.001" height="672" viewBox="0 0 760.001 672">
  <g id="Intersection_1" data-name="Intersection 1" transform="translate(-1 -4)" fill="none">
    <path d="M137.806,676C54.2,606.295,1,501.359,1,384,1,174.132,171.131,4,381,4S761,174.132,761,384c0,117.359-53.2,222.294-136.807,292Z" stroke="none"/>
    <path d="M 620.5447998046875 666 C 703.495361328125 595.4747924804688 751.00048828125 492.9008483886719 751.00048828125 384.0003051757812 C 751.00048828125 179.981201171875 585.018798828125 13.99964427947998 380.9996948242188 13.99964427947998 C 176.9811553955078 13.99964427947998 10.9999303817749 179.981201171875 10.9999303817749 384.0003051757812 C 10.9999303817749 492.9008483886719 58.50481796264648 595.4747924804688 141.4549560546875 666 L 620.5447998046875 666 M 624.19384765625 676 L 137.8059234619141 676 C 54.20448684692383 606.2945556640625 0.9999303817749023 501.3589782714844 0.9999303817749023 384.0003051757812 C 0.9999303817749023 174.1319732666016 171.1313781738281 3.999644756317139 380.9996948242188 3.999644756317139 C 590.8680419921875 3.999644756317139 761.00048828125 174.1319732666016 761.00048828125 384.0003051757812 C 761.00048828125 501.3589782714844 707.7955932617188 606.2945556640625 624.19384765625 676 Z" stroke="none" fill="rgba(202,221,67,0.12)"/>
  </g>
</svg>
