<svg xmlns="http://www.w3.org/2000/svg" viewBox="0 0 16.779 23.953">
  <defs>
    <style>
      .cls-1 {
        fill: #d39128;
      }
    </style>
  </defs>
  <path id="_" data-name=" " class="cls-1" d="M309.595,42.752q-1.453-1.64-2.531-3.094t-2.18-3.187a25.49,25.49,0,0,1-1.992-3.867,14.08,14.08,0,0,1-1.078-3.961q-.047-.562-.047-1.078a8.39,8.39,0,0,1,16.779,0q0,.469-.047,1.031a13.978,13.978,0,0,1-1.1,4.032,29.2,29.2,0,0,1-1.9,3.773q-.984,1.617-2.226,3.281t-1.711,2.227q-.469.563-.75.844a1.3,1.3,0,0,1-.375.328.608.608,0,0,1-.469,0,3.49,3.49,0,0,1-.375-.328Zm-4.827-15.164a5.247,5.247,0,0,0,1.57,3.82,5.374,5.374,0,0,0,7.64,0,5.433,5.433,0,0,0,0-7.641,5.375,5.375,0,0,0-7.64,0A5.25,5.25,0,0,0,304.767,27.588Z" transform="translate(-301.768 -19.174)"/>
</svg>
